Data Transformation and Viz
…
## Specify the column types or set `show_col_types = FALSE` to quiet this message.
## * `` -> `...1`
## * `` -> `...2`
## * `` -> `...3`
## * `` -> `...4`
## * `` -> `...5`
## * `` -> `...6`
## * `` -> `...7`
## * `` -> `...8`
## * `` -> `...9`
## * `` -> `...10`
## * `` -> `...11`
## * `` -> `...12`

## # A tibble: 1,717 x 12
##    ...1        ...2  ...3  ...4  ...5  ...6  ...7  ...8  ...9  ...10 ...11 ...12
##    <chr>       <chr> <chr> <chr> <chr> <chr> <chr> <chr> <chr> <chr> <chr> <chr>
##  1 <NA>        <NA>  <NA>  <NA>  <NA>  <NA>  <NA>  <NA>  <NA>  <NA>  <NA>  <NA> 
##  2 <NA>        <NA>  <NA>  <NA>  <NA>  <NA>  <NA>  <NA>  <NA>  <NA>  <NA>  <NA> 
##  3 <NA>        <NA>  <NA>  <NA>  <NA>  <NA>  <NA>  <NA>  <NA>  <NA>  <NA>  <NA> 
##  4 Market Siz~ <NA>  <NA>  <NA>  <NA>  <NA>  <NA>  <NA>  <NA>  <NA>  <NA>  <NA> 
##  5 Geography   Cate~ Data~ Unit  Curr~ 2017  2018  2019  2020  2021  2022  2023 
##  6 Azerbaijan  HW S~ Reta~ mill~ -     176.4 190.2 207.7 220.7 232.5 248.7 267.1
##  7 Azerbaijan  HW S~ Reta~ AZN ~ Curr~ 264.6 308.6 354.8 382.1 420.9 469.1 528.9
##  8 Azerbaijan  Soft~ Off-~ mill~ -     465.4 514.7 571.7 583.3 651.2 708.3 751.9
##  9 Azerbaijan  Soft~ Off-~ AZN ~ Curr~ 542.0 617.7 701.3 723.7 846.5 1,05~ 1,24~
## 10 Azerbaijan  Bott~ Off-~ mill~ -     187.3 194.3 203.6 219.4 234.4 252.1 265.5
## # i 1,707 more rows

Qu pasa aqu?, este tipo de issues es muy comn, es necesario saltar algunos renglones hasta llegar al encabezado

library(readr)
read_csv("data/Market_size.csv", skip = 5)

## Rows: 1712 Columns: 12
## -- Column specification --------------------------------------------------------
## Delimiter: ","
## chr (12): Geography, Category, Data Type, Unit, Current Constant, 2017, 2018...
## 
## i Use `spec()` to retrieve the full column specification for this data.
## i Specify the column types or set `show_col_types = FALSE` to quiet this message.

## # A tibble: 1,712 x 12
##    Geography  Category `Data Type` Unit  `Current Constant` `2017` `2018` `2019`
##    <chr>      <chr>    <chr>       <chr> <chr>              <chr>  <chr>  <chr> 
##  1 Azerbaijan HW Soft~ Retail Vol~ mill~ -                  176.4  190.2  207.7 
##  2 Azerbaijan HW Soft~ Retail Val~ AZN ~ Current Prices     264.6  308.6  354.8 
##  3 Azerbaijan Soft Dr~ Off-trade ~ mill~ -                  465.4  514.7  571.7 
##  4 Azerbaijan Soft Dr~ Off-trade ~ AZN ~ Current Prices     542.0  617.7  701.3 
##  5 Azerbaijan Bottled~ Off-trade ~ mill~ -                  187.3  194.3  203.6 
##  6 Azerbaijan Bottled~ Off-trade ~ AZN ~ Current Prices     123.0  131.7  138.0 
##  7 Azerbaijan Carbona~ Off-trade ~ mill~ -                  216.6  247.6  284.8 
##  8 Azerbaijan Carbona~ Off-trade ~ AZN ~ Current Prices     234.2  270.8  313.6 
##  9 Azerbaijan Regular~ Off-trade ~ mill~ -                  209.6  239.6  275.3 
## 10 Azerbaijan Regular~ Off-trade ~ AZN ~ Current Prices     226.4  261.7  302.7 
## # i 1,702 more rows
## # i 4 more variables: `2020` <chr>, `2021` <chr>, `2022` <chr>, `2023` <chr>
…
Aqu otro ejemplo muy util para generar variables calculadas de la diferencia del crecimiento/decremento del 2023 vs 2022:

pack_type %>%
  mutate(across(7:13, as.numeric)) %>%
  mutate(Year_diff= ((`2023` / `2022`)-1)*100)

## # A tibble: 843 x 14
##    Geography   Category   `Packaging Class` `Pack Type` `Data Type` Unit  `2017`
##    <chr>       <chr>      <chr>             <chr>       <chr>       <chr>  <dbl>
##  1 Argentina   Soft Drin~ Total             Total Pack~ Retail/off~ mill~ 1.07e4
##  2 Austria     Soft Drin~ Total             Total Pack~ Retail/off~ mill~ 1.87e3
##  3 Australia   Soft Drin~ Total             Total Pack~ Retail/off~ mill~ 6.08e3
##  4 Belgium     Soft Drin~ Total             Total Pack~ Retail/off~ mill~ 3.48e3
##  5 Brazil      Soft Drin~ Total             Total Pack~ Retail/off~ mill~ 2.93e4
##  6 Canada      Soft Drin~ Total             Total Pack~ Retail/off~ mill~ 1.19e4
##  7 Switzerland Soft Drin~ Total             Total Pack~ Retail/off~ mill~ 2.08e3
##  8 Chile       Soft Drin~ Total             Total Pack~ Retail/off~ mill~ 4.62e3
##  9 China       Soft Drin~ Total             Total Pack~ Retail/off~ mill~ 1.36e5
## 10 Colombia    Soft Drin~ Total             Total Pack~ Retail/off~ mill~ 9.04e3
## # i 833 more rows
## # i 7 more variables: `2018` <dbl>, `2019` <dbl>, `2020` <dbl>, `2021` <dbl>,
## #   `2022` <dbl>, `2023` <dbl>, Year_diff <dbl>

Mejorando:

pack_type %>%
  mutate(across(7:13, as.numeric)) %>%
  mutate(Year_diff= paste0(round(((`2023` / `2022`)-1)*100,2),"%"))

## # A tibble: 843 x 14
##    Geography   Category   `Packaging Class` `Pack Type` `Data Type` Unit  `2017`
##    <chr>       <chr>      <chr>             <chr>       <chr>       <chr>  <dbl>
##  1 Argentina   Soft Drin~ Total             Total Pack~ Retail/off~ mill~ 1.07e4
##  2 Austria     Soft Drin~ Total             Total Pack~ Retail/off~ mill~ 1.87e3
##  3 Australia   Soft Drin~ Total             Total Pack~ Retail/off~ mill~ 6.08e3
##  4 Belgium     Soft Drin~ Total             Total Pack~ Retail/off~ mill~ 3.48e3
##  5 Brazil      Soft Drin~ Total             Total Pack~ Retail/off~ mill~ 2.93e4
##  6 Canada      Soft Drin~ Total             Total Pack~ Retail/off~ mill~ 1.19e4
##  7 Switzerland Soft Drin~ Total             Total Pack~ Retail/off~ mill~ 2.08e3
##  8 Chile       Soft Drin~ Total             Total Pack~ Retail/off~ mill~ 4.62e3
##  9 China       Soft Drin~ Total             Total Pack~ Retail/off~ mill~ 1.36e5
## 10 Colombia    Soft Drin~ Total             Total Pack~ Retail/off~ mill~ 9.04e3
## # i 833 more rows
## # i 7 more variables: `2018` <dbl>, `2019` <dbl>, `2020` <dbl>, `2021` <dbl>,
## #   `2022` <dbl>, `2023` <dbl>, Year_diff <chr>

Ahora revisamos que hace el verbo select().

Encuentras algun parecido a cursos anteriores?

pack_type %>%
  select(c("Geography","Category","2022","2023")) %>%
  mutate(across(3:4, as.numeric)) %>% #ojo aqu, los indices cambian al recortar el no. de columnas
  mutate(Year_diff= paste0(round(((`2023` / `2022`)-1)*100,2),"%")) 

## # A tibble: 843 x 5
##    Geography   Category               `2022`  `2023` Year_diff
##    <chr>       <chr>                   <dbl>   <dbl> <chr>    
##  1 Argentina   Soft Drinks Packaging  10356.  10700. 3.33%    
##  2 Austria     Soft Drinks Packaging   2088.   2065. -1.09%   
##  3 Australia   Soft Drinks Packaging   6698.   6803. 1.57%    
##  4 Belgium     Soft Drinks Packaging   3692.   3704  0.34%    
##  5 Brazil      Soft Drinks Packaging  32387.  33591. 3.72%    
##  6 Canada      Soft Drinks Packaging  12471.  12638. 1.34%    
##  7 Switzerland Soft Drinks Packaging   2186.   2202. 0.7%     
##  8 Chile       Soft Drinks Packaging   6127.   6444. 5.16%    
##  9 China       Soft Drinks Packaging 158475. 166178. 4.86%    
## 10 Colombia    Soft Drinks Packaging  11577.  11753. 1.52%    
## # i 833 more rows
…
El siguiente verbo summarise() es de gran utilidad, lo usaremos mucho, esperen a que lleguemos al mundo visual de ggplot.

Tenemos la variable dist_pais que tiene la extraccin del numero de registros por pais, la usamos.

dist_pais <- pack_type %>%
  group_by(Geography) %>%
  summarise(cuenta = n())

dist_pais

## # A tibble: 43 x 2
##    Geography cuenta
##    <chr>      <int>
##  1 Argentina     17
##  2 Australia     20
##  3 Austria       18
##  4 Belgium       18
##  5 Brazil        21
##  6 Canada        23
##  7 Chile         16
##  8 China         20
##  9 Colombia      21
## 10 Denmark       16
## # i 33 more rows

Y por ultimo un verbo para ordenar o acomodar nuestros valores muy usado es arrange()

Acomodamos por forma descendente

dist_pais %>%
  arrange(desc(cuenta))

Y luego ascendente

dist_pais %>%
  arrange(cuenta)

## # A tibble: 43 x 2
##    Geography        cuenta
##    <chr>             <int>
##  1 Israel               11
##  2 Finland              14
##  3 Hong Kong, China     14
##  4 Vietnam              15
##  5 Chile                16
##  6 Denmark              16
##  7 New Zealand          16
##  8 Philippines          16
##  9 Portugal             16
## 10 Argentina            17
## # i 33 more rows
…
y la magia de dplyr es: un solo PIPE!!!!!

pack_type %>%
  mutate(across(7:13, as.numeric)) %>%
  mutate(Year_diff= paste0(round(((`2023` / `2022`)-1)*100,2),"%")) %>%
  select(c("Geography","Pack_Type","2022","2023", "Year_diff")) %>%
  filter(Geography  == "Mexico") %>%
  group_by(Pack_Type) %>%
  summarise(Diff = `2023` - `2022`,
            Year_diff)

## # A tibble: 22 x 3
##    Pack_Type                     Diff Year_diff
##    <chr>                        <dbl> <chr>    
##  1 Brick Liquid Cartons        79.9   7.35%    
##  2 Composite Containers         0     0%       
##  3 Flexible Aluminium/Paper    40.7   1.81%    
##  4 Flexible Aluminium/Plastic  -0.100 -2.17%   
##  5 Flexible Packaging         -60     -2.49%   
##  6 Flexible Plastic            -1     -2.15%   
##  7 Folding Cartons             -0.5   -1.43%   
##  8 Gable Top Liquid Cartons    10.9   2.09%    
##  9 Glass                      206.    3.73%    
## 10 Glass Bottles              206.    3.73%    
## # i 12 more rows

Dejamos todas los paises, lo guardan en su variable y listo!!!

crecimiento_tipo_empaque <- pack_type %>%
  mutate(across(7:13, as.numeric)) %>%
  mutate(Year_diff= paste0(round(((`2023` / `2022`)-1)*100,2),"%")) %>%
  select(c("Geography","Pack_Type","2022","2023", "Year_diff")) %>%
  group_by(Pack_Type) %>%
  summarise(Diff = `2023` - `2022`,
            Year_diff) %>%
  na.omit() %>%
  arrange(Year_diff)
crecimiento_tipo_empaque

## # A tibble: 830 x 3
## # Groups:   Pack_Type [34]
##    Pack_Type                     Diff Year_diff
##    <chr>                        <dbl> <chr>    
##  1 PET Bottles                 -2.40  -0.03%   
##  2 Metal Bottles               -0.100 -0.1%    
##  3 Metal Beverage Cans        -75.3   -0.13%   
##  4 Brick Liquid Cartons        -0.700 -0.14%   
##  5 Metal                      -81     -0.14%   
##  6 Shaped Liquid Cartons       -0.400 -0.16%   
##  7 Brick Liquid Cartons        -1.90  -0.18%   
##  8 Flexible Aluminium/Plastic  -0.100 -0.31%   
##  9 Liquid Cartons              -3.5   -0.37%   
## 10 Flexible Packaging          -0.400 -0.42%   
## # i 820 more rows
…
Sin embargo podemos hacer mejores visualizaciones con mejores datos

Volvemos a ordenar el set original, ojo con la funcin gather.

Para mas informacin busquen referencias en tidyr relacionadas a gather y spread.

market <- read_csv("data/Market_size.csv", skip = 5)
market<- market %>%
  mutate(across(6:12, as.numeric)) %>%
  filter(`Current Constant` == "Current Prices")
market<- gather(market, key = "Ao", value = "Prices",
       (6:12))
market

## # A tibble: 5,992 x 7
##    Geography  Category         `Data Type` Unit  `Current Constant` Ao   Prices
##    <chr>      <chr>            <chr>       <chr> <chr>              <chr>  <dbl>
##  1 Azerbaijan HW Soft Drinks ~ Retail Val~ AZN ~ Current Prices     2017   265. 
##  2 Azerbaijan Soft Drinks      Off-trade ~ AZN ~ Current Prices     2017   542  
##  3 Azerbaijan Bottled Water    Off-trade ~ AZN ~ Current Prices     2017   123  
##  4 Azerbaijan Carbonates       Off-trade ~ AZN ~ Current Prices     2017   234. 
##  5 Azerbaijan Regular Carbona~ Off-trade ~ AZN ~ Current Prices     2017   226. 
##  6 Azerbaijan Reduced Sugar C~ Off-trade ~ AZN ~ Current Prices     2017     7.8
##  7 Azerbaijan Concentrates     Off-trade ~ AZN ~ Current Prices     2017    28  
##  8 Azerbaijan Juice            Off-trade ~ AZN ~ Current Prices     2017    24.6
##  9 Azerbaijan RTD Coffee       Off-trade ~ AZN ~ Current Prices     2017     0.7
## 10 Azerbaijan RTD Tea          Off-trade ~ AZN ~ Current Prices     2017    31.1
## # i 5,982 more rows

market <- market %>%
  mutate(Ao= as.numeric(Ao)) %>%
  group_by(Category,Ao) %>%
  summarise(Precios = sum(Prices, na.rm=TRUE))
market  

## # A tibble: 112 x 3
## # Groups:   Category [16]
##    Category                  Ao Precios
##    <chr>                   <dbl>   <dbl>
##  1 Asian Speciality Drinks  2017   1671 
##  2 Asian Speciality Drinks  2018   1757.
##  3 Asian Speciality Drinks  2019   1847.
##  4 Asian Speciality Drinks  2020   1933.
##  5 Asian Speciality Drinks  2021   2005.
##  6 Asian Speciality Drinks  2022   2150 
##  7 Asian Speciality Drinks  2023   1224.
##  8 Bottled Water            2017   8444.
##  9 Bottled Water            2018   8354.
## 10 Bottled Water            2019   7818.
## # i 102 more rows
…
market <- read_csv("data/Market_size.csv", skip = 5)
market<- market %>%
  mutate(across(6:12, as.numeric)) 
market<- gather(market, key = "Ao", value = "Prices",
       (6:12))
market <- market %>%
  mutate(Ao= as.numeric(Ao)) %>%
  group_by(Category,`Current Constant`, Ao) %>%
  mutate(`Current Constant` = str_replace(`Current Constant`, "-", "Litros")) %>%
  summarise(Precios_Lts = sum(Prices, na.rm=TRUE))
market <- market %>% spread(`Current Constant`, Precios_Lts)
market

## # A tibble: 112 x 4
## # Groups:   Category [16]
##    Category                  Ao `Current Prices` Litros
##    <chr>                   <dbl>            <dbl>  <dbl>
##  1 Asian Speciality Drinks  2017            1671   1143 
##  2 Asian Speciality Drinks  2018            1757.  1214 
##  3 Asian Speciality Drinks  2019            1847.  1239.
##  4 Asian Speciality Drinks  2020            1933.  1081.
##  5 Asian Speciality Drinks  2021            2005.  1055.
##  6 Asian Speciality Drinks  2022            2150   1067.
##  7 Asian Speciality Drinks  2023            1224.  1048.
##  8 Bottled Water            2017            8444. 16049.
##  9 Bottled Water            2018            8354. 15956.
## 10 Bottled Water            2019            7818. 16699.
## # i 102 more rows
…
